-c
-m17
-mf-2
0-ag14
01-ag
022hu-nso
02er
05mg
0b10
1-5c-4
1-ag4
1-ag4-1
1-hc
1-positive
10a
10b9
10c4
10c7
10crmca
10e5
10f
10f7mn
10h2
10me
10p2
10t1
11-d
12-a-3
127h
127i
127tag
12a
12b
12b-1
12b-2
12b-3
12c9
12d
12e
12e8
12j
12mbr6
12s6
13b
13c
13c4
13lu
13s1
14-g4
142br
143b
149br
14c
14e5
151tag
153br
155br
15b2
15c6
15f7
15p-1
161br
166-me
16e6
16e7
16h3
16lu
171br
173we
174br
174t
175br
17aba
17d
180br
182-pf
18c2
18lu
19f8
19lu
1a
1a2
1a3
1a6
1ag
1b2a3
1b5
1b7
1br
1br3
1c3
1c6
1d
1d11
1d3
1d4
1d9
1e10
1e8
1f
1f2
1f5
1g
1g1
1g10
1g12
1g2
1g3
1g8
1h
1h11
1h3
1me
1n
1ng
1r
1tb
1ut
2-l
200d
208f
20b8
20c2
20h2
226h
22f5
22rv1
236l
23b6
23cln
24ia
251-mg
253d
25lu
26cb-1
26ic
283tag
28s
293t
294t
29f8
2a
2a1
2a11
2a3a1h
2a5
2b
2b10
2b2
2b5
2b7
2b8
2bd4e4
2c
2c1h7
2c4
2c5-6
2d-7
2d10
2d12
2d4
2e
2e6
2e8
2f
2f-2b
2f7
2flb
2g3
2g6
2g8
2h-11
2h6-c2
2hx-2
2lbln
2m6
2pk-3
2r
2ra
2t
2v6
3-83p
3-negative
3-positive
30-7b
30-c7
308tag
309f
31c
31e9
31f4l
320dm
320hsr
32d
33b
33d1
39-s
3a
3a-sub
3a5
3a8
3b
3b-11
3b11
3b18
3b2
3bd
3c
3c10
3c11
3c5
3c7
3d10
3e1
3f10
3f6
3g3
3g5
3g9f3
3h5-1
3lbln
3r
3t
3t3
3t3-l1
3t3-msv
3t3-swiss
3t6-swiss
41-5a
416b
42-mg-ba
42ta
43r
448-d
44aacb
451lu
46br
49f
4a
4a2
4a5
4a6
4a7
4b2
4c
4c10
4c2
4c4
4c5g
4c9
4d1
4d11
4d12
4d8
4d9d4
4e11
4g
4g2
4h1-a7
4h2
4mbr-5
4r
4t
4t1
4xh2
52-s
52a
52b
52c
53-s
558-d
56b3
578bst
578t
58-s
59m
5a
5a1
5b
5b11b
5b4
5c6
5c8
5c9
5d5
5e4
5f11
5f12
5g3
5g5
5h11
5h8
5lbln
5r
5tes
5xh11
60bca
60h9
62b1-pc
633t
639-v
63d3
64-d
647-v
66a3
695t
699n
6a
6a7m
6a8
6b10
6d4
6d8mb4
6e12
6e6
6e7
6f10
6f4c5
6g4
6lbln
6r
6tg
7-td-1
700t
70z
71a7
72a1
738lu
745a
746t
75bae
766t
769-p
774a
786-o
7a9
7ac5
7c
7c6
7c8
7d2-1
7d3a
7d4
7e3
7f2
7g
7g7b6
7r
7td1
8-mg-ba
80-negative
80-positive
80t
81h
829bl
84br
86d
888lu
88b
88tag
8a
8a-pc
8a2n
8a3
8a3b
8b1b
8d2
8e5
8e7
8f6-pc
8g2
8lu
9-a5
9-b1
9-b7
913t
91a
91f
92a
92br
92f
92tag
97a
9ae10
9b5
9bg5
9c1
9d10
9d9
9f12
9l
9tr
a-10
a-172
a-2
a-204
a-253
a-375
a-427
a-431
a-498
a-673
a-704
a-72
a-9
a-a94
a-ace
a-b92a
a-b92f
a-b92v
a-c88
a-her2
a-p92
a-s-30d
a-s91
a1
a101d
a11
a123
a124
a15
a172
a1g3
a2
a20
a221a
a238
a24
a253
a2b5
a2e11
a2h
a3
a3-18
a31
a375
a388
a4
a431
a431ns
a44
a4xl
a5
a52m
a549
a5e
a6
a673
a7
a704
a717
a7r5
a8
a84m
a84p
a9
a94
a94m
a94p
a95
a9ht
aa
aa224
aa5
aa8
aa84f
aaa95m
aal
ab
ab1-2
abc-1
abdomen
abdominal
abe-8
abl5c2
absorptive
ac-1m32
ac-1m46
ac-1m59
ac-1m81
ac-1m88
ac133
ac2
ac84
ac9
ac95
acceleration
accumulating
acetabular
ach1p
achilles
achn
acid
acidophil
acinar
acinus
acn
acoustic
acrea
act
actinomycete-type
ad
ad3
ad94il2
ad94lebv
adapted
adaxial
adenocarcinoma
adenohypophysis
adepithelial
adf
adipocyte
adipose
adrenal
adrenocorticotropic
adult
adventitia
adventitial
ae
ae-1
ae-2
ae84s
ae9d6
aedes
aegypti
af-1
af-2
af1
af3-12
af4-73
af6-78
af6-88
afa95m
afferent
african
aft024
ag
ag4
ag95p
aggregate
agile
aglcl
agm
ags
ah-1
ah2
ahh-1
ahl-1
ainv15
air-1
aj95
ak-d
akr
akr-2b
akr1
al
alarm
albino
albopictus
albuginea
alc
alexander
alimentary
alkali
all-po
all8
allen
alm86m
almy
alpha
alpha-beta
alpha-intercalated
alpha-low
alpha-negative
alpha-positive
alternatively
alveolar
alveolus
am
am-c6sc8
am85
am86
am95
amdur
ameloblast
american
amine
amj2-c11
amj2-c8
aml-193
aml12
aml14
ammon
amniocyte
amnion
amnion-derived
amnioserosal
amniotic
amoeboid
ampli-gpe
ams
amulv
an
an3
an86p
ana
anal
anatomical
anchoring
androgen
ang1
angioblastic
angolan
anha
anjou
ann-1
annulus
anr4
anteater
anterior
antheraea
anti-130-kda
anti-my-10
anti-sc35
anti-sr
anti-srp20
antibody
antigen
anucleate
aorta
aorta-derived
aortic
aotus
ap
ap-3
ap129
ap170
ap95
apmc1
apocrine
apoptosis
appendix
aprt-
apud
ar
ar42j
ar4ip
ar84s
ar91
arcade
arcuate
area
areolar
arh
arh-77
arip
arl-6
arlj
arm
arm-derived
armadillo
armyworm
arpe-19
arterial
arteriole
artery
artery-derived
arthopoda
arthroconidium
arthropoda
articular
as4
ascending
ascites
ascospore
asexual
ask
aspc-1
associated
ast
astrocyte
at-1
at-3
at2
at3b-1
at6
at95
atc1
atcc
ath
athos
atl
atlantic
atrflox
atrial
atrioventricular
atrium
att-20
att-20ins
att20
attachment
au565
aubek
auditory
aureus
av
av3
ave-115
aw3
axilla-derived
aye-aye
aza1
azara
b
b-1
b-1a
b-1b
b-2
b-3
b-63
b-a95
b-b87
b-b88a
b-b88f
b-b92c
b-b92s
b-c86
b-c89
b-cell
b-cpap
b-d93
b-dp85
b-f91
b-g92
b-k88
b-l94
b-like
b-m
b-m91a
b-m91f
b-m93
b-p91
b-p94
b-r92
b-r93a
b-r93f
b-s95
b-v92
b-z94
b1
b1-4
b104
b11
b12
b13nbii1
b15eciii2
b16
b16-a
b16-f0
b16-f1
b16v
b16vdxr
b18
b19
b192
b1b3
b1b6
b2
b2-1
b21-2
b220-low
b220-positive
b25
b27m1
b27m2
b29
b3
b35
b38
b3d
b4
b5
b50
b505
b6
b65
b69
b6h12
b6nlxv1c2
b7
b72
b78h1
b7ifi1
b82
b84
b85
b86m
b9
b92
b95-8
b95a
ba
ba-d5
ba-f8
ba-g5
ba193
ba7
ba96
baboon
bae
bae-1
baec
baec-1
bag
bag-12g2
bag2
bag4
balb
bamboo
band
bank
baoec
barrier
basal
basidiospore
basket
basophil
basophilic
basophillic
bass
bat
bb
bb7
bb88
bb96p
bbm
bc-1
bc-2
bc-3
bc-3c
bc16a
bc3
bc3a
bc3h1
bc87il2
bc87ls
bc9-e5
bc96
bcd
bce
bcl
bcl1
bcp-1
bd-215
bd4
bd5-2d
bdcm
be
be-13
be1
be10-7
be10-intermediate
be10-late
be11
be2
be29g1
be3f9
bear
beas-2b
bek
bel
ben
bend
ber
bergmann
bet-1
bet-2
beta-cell
beta-intercalated
beta-tc-3
beta-tc-6
beta7-high
bewo
bf-11
bf-2
bf-32
bf-34
bf-45
bf-f3
bf-g6
bf1
bf93
bf95
bf96
bfa
bftc-905
bftc-909
bg
bg01v
bg194
bgc-823
bge
bgf96m
bgm
bgp94
bhk
bhk-21
bhk-bs
bhk-hvj
bhk21-pcdna3
bhk570
bht-101
bhy
bi
bi96
bicr
bile
binding
bing
binucleate
biogenic
bipolar
bj
bj-5ta
bk
bl
bl-20
bl-3
bl-41
bl-70
bl2-8g-e6
bl3
bl95
black
black-cheeked
black-handed
black-tailed
bladder
bladder-derived
blast
blastconidium
blastemal
blastoconidium
blastoderm
ble96
blk
bln
bln96m
blo-11
blood
blue
bluegill
bluestriped
bm
bm-n
bm1
bm2
bm3
bm3-delta
bm4
bm5
bm87
bm95
bme
bnl
bo
body
body-derived
boettcher
bolivian
bombesin
bon
bone
bone-derived
bonna-12
border
bornean
bos
bot
bottle
bowes
bp107
bp86
bp96
bpaec
bpe
bph-1
bprcl
br96p
brain
brain-derived
branch
branched
brazza
breast
breast-derived
bristol
brl
brl-1
brl-3a
bronchial
bronchioalveolar
bronchiole
bronchus
bronchus-derived
broncial
brown
brush
bruyn
bruyn-gey
bs
bs-c-1
bs1-b4
bsc-1
bsc1
bsc40
bsp
bt
bt-20
bt-474
bt-483
bt-549
bt-b
bthy
bti-eaa
btv10xsp2
bu
bu25
buccal
bud
bud-8
budgerigar
budr
buf
buffalo
bufo
bulb
bullfrog
bullhead
bundle
burchell
bushbaby
buttock-derived
bv-173
bvd
bw1j
bwtg3
bxpc-3
bystander
bzr
c-1
c-10
c-13
c-3
c-33
c-4
c-433
c-4i
c-b94
c-b95
c-c87a
c-c87f
c-c90
c-c91
c-c95
c-d92
c-e
c-f89
c-g86
c-m87
c-m92
c-n90
c-n95
c-s91a
c-s95
c-src
c1
c10
c11
c11c1
c12
c127
c127i
c129
c16
c166
c166-gfp
c171
c18
c180
c1d3
c1pv
c1r-b7
c1r-neo
c1r-sb7
c2
c2-rev
c211
c273
c2bbe1
c2pv
c3
c305
c32
c32tg
c35
c37
c38
c3a
c3h
c3pv
c3t3
c4
c43
c44
c4pv
c5
c57
c57bl
c57l
c57sv
c58
c5b7
c5mj
c5pv
c6
c6-bu-1
c6-russian
c6pv
c7
c7pv
c8
c8-b4
c8-d1a
c8-d30
c8-s
c83
c86m
c86p
c87
c8pv
c91
c91pl
c92
c93
c96
c9pv
ca
ca-hpv-10
ca-pj34
ca-pj41
ca295
ca3-f4
ca46
ca95
ca96
cab
cabbage
caco-2
cado-es1
caecum-derived
cajal
cajal-retzius
caki-1
caki-2
cal
cal-120
cal-12t
cal-148
cal-27
cal-33
cal-39
cal-51
cal-54
cal-62
cal-72
cal-78
cal-85-1
calcitonin
calf-derived
calu-1
calu-3
calu-6
cam1
cama-1
camel
camera-type
canal
canaliculus
canis
caov-3
caov-4
cap
capan-1
capan-2
capillary
capsule
capsule-derived
car
car-z2
carbohydrate
carcinoma
cardiac
cardioblast
cardiocyte
cardiomyocyte
cardiovascular
carotid
carp
cartilage
cas-1
caski
cat
cat-13
cates-1b
catfish
cath
cattle
cav
cavity-derived
cb1
cb57
cb58
cb59
cbl-1
cc
cc-1
cc15
cc17
cc20
cc21
cc29
cc30
cc38
cc39
cc42
cc51
cc55
cc56
cc57
cc58
cc63
cc8
cc81
cc96
cc9c10
ccckr3
ccd
ccd-112
ccd-11lu
ccd-13lu
ccd-16lu
ccd-186sk
ccd-18co
ccd-19lu
ccd-25lu
ccd-25sk
ccd-27sk
ccd-29lu
ccd-32lu
ccd-32sk
ccd-33co
ccd-33lu
ccd-34lu
ccd-34sk
ccd-37lu
ccd-39lu
ccd-39sk
ccd-42sk
ccd-43sk
ccd-8lu
ccd-944sk
ccd-986sk
ccf-sttg1
cck061
ccm89m
cco
ccr4-positive
ccr6-negative
ccrf
ccrf-cem
ccrf-hsb-2
ccrf-sb
cd103-negative
cd103-positive
cd115-positive
cd117-positive
cd11b-high
cd11b-low
cd11b-negative
cd11b-positive
cd11c-low
cd11c-negative
cd14-low
cd14-positive
cd141-positive
cd16-low
cd16-negative
cd16-positive
cd161-positive
cd1a-positive
cd1c-positive
cd2-positive
cd217-positive
cd22-positive
cd24-negative
cd24-positive
cd25-positive
cd27-high
cd27-low
cd27-negative
cd27-positive
cd28-negative
cd34-negative
cd34-positive
cd38-high
cd38-low
cd38-negative
cd38-positive
cd4
cd4-intermediate
cd4-negative
cd4-positive
cd41-positive
cd42-negative
cd42-positive
cd43-positive
cd44-positive
cd5-positive
cd56-bright
cd56-dim
cd56-negative
cd56-positive
cd59
cd69-positive
cd7-negative
cd7-positive
cd71-low
cd71-negative
cd8
cd8-alpha
cd8-alpha-alpha-positive
cd8-alpha-beta-positive
cd8-intermediate
cd8-negative
cd8-positive
cd86
cd88f
cd88ls
cd89p
cd8alpha
cd8alpha-negative
cd8alpha-positive
cd9-positive
cd94-negative
cd94-positive
cdc
cdm96
cdr1
cdr2
ce
ce-1
ce-3
ce9h9
cecum
cef
ceinge
celebes
cem
cem-cm3
cem-lav-2
cementoblast
cementocyte
center
central
centripetally
centro-acinar
cer
cerebellar
cerebellum
cerebral
cerebrospinal
cervical
cervix
cervix-derived
cess
cf-1
cf-10h5
cf-1d12
cf11
cf17
cf21
cf24
cf28
cf2th
cf3
cf30
cf33
cf34
cf35
cf37
cf38
cf4-c4
cf41
cf43
cf44
cf45b
cf46
cf47
cf48
cf49
cf52
cf8
cf84f
cf84ls
cf89p
cf96f
cf96p
cfpac-1
cfzt
cg5
cg7c7
cg89
cg94il2
cg96
cgbq
cgr8
cgt-6
cgth-w-1
ch
ch-eb6
ch1
ch13
ch2
chago-k-1
chamber
chang
channel
charles
chat
che-fc
chemotactic
chh-1
chicken
chief
chimpanzee
chinese
chinook
chl
chl-1
chlamydospore
cho
cho-1c6
cho-cd36
cho-dhfr
cho-icam-1
cho-k1
cho-ssr1
cho-ssr2
cho10pv
cho12ro
cho181pv
cho191pv
cho192pv
cho201pv
cho202pv
cho203pv
cho204pv
cho205pv
cho211pv
cho23pv
cho2pv
cho302pv
cho30pv
cho33ro
cho3pv
cho40pv
cho421pv
cho423pv
cho43ro
cho4pv
cho50pv
cho51pv
cho5pv
cho60pv
cho7pv
cho9pv
cholangiocyte
cholecystokin
chondroblast
chondrocyte
chordamesodermal
chordate
chorion-derived
chorionic
choroid
choroid-plexus
choroidal
chp
chp-126
chp-212
chromaffin
chromophil
chromophobe
chromosome-bearing
chse
chse-214
chum
cia-e-4
cia-e-7
cii
cii3
ciliary
ciliated
cir
citrullinemia
ckmm
cl
cl-1
cl-s1
cl13
cl18
cl2
cl25
cl3
cl37
cl39
cl95
cl96f
cl96il2
clara
class
classical
claudius
clawed
clc
clear
clm96m
cln
clnh5
clone
closable
clt
cluster-derived
cm86
cm87
cm87il2
cm88m
cm91il2
cm91ls
cm94
cm94p
cmba
cmh1a
cmk
cml-t1
cmmt
cmr94m
cmt
cmt-93
cmt64
cmt93
cn5a
cn96
cnc
cns
co
cochlea
cochlear
coelomocyte
coho
col-10
col-7
cold
collagen
collecting
colo
colo-206f
colo-320
colo-678
colo-680n
colo-699
colo-704
colo-783
colo-824
colo-849
colobus
colon
colon-derived
column
columnar
comma-shaped
commissure-derived
common
compact
competent
compound
con
cona-b1-vick
cona-c1-vick
concha-derived
condensation
cone
conidiophore
conidium
conjuctiva
conjunctiva
conjunctiva-derived
conjunctival
connecting
connective
contractile
convoluted
coo
copper
coppery
coquerel
cor
cor-l
cor-l105
cor-l23
cor-l24
cor-l279
cor-l283r
cor-l311
cor-l47
cor-l51
cor-l88
cor-l95
cord
cord-derived
coriell
cornea
cornea-derived
corneal
corneocyte
corneum
corona
coronary
corpuscule
cortex
cortex-derived
corti
cortical
corticotroph
cos-1
cos-7
cos7
cotr
cotton-top
cottontail
coy
cp132
cpa
cpae
cpc-n
cpr
cpx
cr
cr83
cr86
cr88p
cr96
cranial
crayfish
cre
crest
crested
crfk
cri
cri-10p
cri-d11
cri-d2
cri-g1
cri-g5
crisis
cro-ap2
cro-ap3
cro-ap5
crowned
crypt
crystal
crystallin
cs191
cs1pv
cs87
cs96
cse
cse-119
csmaß1h
csmaß6c
csn
csv
ct
ct26
ct6-1d7
ct96
ctla4
ctll
ctll-2
ctps
ctv-1
ctvm
ctx
cuboidal
cumulus
cuticle
cv-1
cv96f
cvc
cvd89m
cw13
cw7neo
cwe
cx-1
cxcr3-negative
cxcr3-positive
cy34
cyanoblast
cyanophore
cybrid
cyclin
cynom-k1
cystoblast
cyt
cytokine
cytoplasmic
cytotoxic
cytotrophoblast
c–
d-11
d-17
d-1b
d-36
d-a92a
d-a92f
d-b87
d-c95
d-f92
d-f94
d-g92
d-m89
d-r86
d-t93
d1
d10
d12
d16v-f2
d17
d1b
d2
d22
d24
d283
d2n
d3
d341
d4
d5
d6
d8
d94
d96
d98
da
da-1
da4-4
da94
dakiki
dal
dan
dan-g
daoy
dap
dap-3
dap-3dpw2
dap-3dq1
dap-3dr2a
dap-3dr2b
dap-3drw52b
dap10
dap8
dark
dasyuridae
datk32
daudi
david
day
db
db-r95
db1-tes
db9g8
dba
dbc95
dbm96
dbs-fcl-1
dbs-fcl-2
dbs-frhl-2
dbtrg
dbtrg-05mg
dbv95
dc-p87
dc101
dc96
dci96
dco96
dcon96
dd-4
ddc95
ddt
ddt1-mf2
de
de96p
dec-205
decidua
decidual
dede
deer
defensive
definitive
deiter
del
dempsey
dendritic
densa
dense
dense-core
dental
dento-alveolar
derived
derm
dermal
dermis
dermis-derived
descending
detroit
dex
df
df-1
dfa96m
dfc96
dff87
dfge96
dfgi96
dfk3
dg
dg-75
dg96
dh
dh14
dh15
dh33
dh82
dh82ecok
dhd
dhfr-g8
dhfr–
di
differentiated
digestive
digit
digit-derived
dii
dikaryon
dilator
diploid
diptera
disc
disease
disseminated
distal
distalis
division
dk
dk-mg
dka
dke
dkh
dkj
dl86
dl87
dld-1
dlf87
dlg96f
dlg96il2
dll87s
dm
dm-15
dm94
dmbm-2
dmf
dmm87
dms
dms-79
dn1
dn2
dn2a
dn2b
dn3
dn4
dni
docl1
dog
dohh2
dok
dolphin
dome
don
dopamanergic
dopaminergic
dorsal
dotc2
double
double-positive
dow
dp-12
dp-ll95
dps84
dpso
dpw
dr
dr1
dr10
dr4
dr89p
dreg200
dreg56
drill
drosophila
drs
ds
ds-1
ds-3
ds-5
ds-6
ds-g23
ds19
ds22-4
dsdh
dsh1pv
dsh2pv
dsh3pv
dsh4pv
dsil-
dsl-6a
dsl-6b
dsn
dt40
dt95
dta4-1
du
du1-29
dubca
duck
duct
ductal
dukx
dunni
duodenal
duodenum
duodenum-derived
duplicate
dura
dv-90
dv68f
dva96
dwarf
dx
dx5
dx5-negative
dxb-11
dzhungarian
e-14
e-4
e-8
e-86
e-l
e-p95
e-s
e1
e13
e1a
e2
e3
e4
e5ab2
e5bb3iia2
e6
e6-1
e6e7
e7
e7-c1
e9
ea
ear-derived
eb
eb-1
eb-3
eb1
eb176
eb185
eb2
ebl
ebna-1
ebtr
ec
ec1
ec2
eccrine
ecdysteroid
echinocyte
ecl
ecr
ect1
ectc
ecto-epithelial
ectocervix
ectodermal
ecv-304
ecv304
edge
eds
efe-184
effector
efferent
efm-19
efm-192a
efm-192b
efm-192c
efo-21
efo-27
egc
egfr-t17
egg
eggshell
egi-1
eh
eh17a
eh7a
eheb
ehrlich-lettre
ehs
eht
eiav
eiii
ej
ej-6-2-bam-6a
ej138
ejg
ekl
el
el-nc-1s
el4
elaine
elastic
electrically
element-derived
elicited
elm-i-1
em
em-2
em-3
em9
embryo
embryo-derived
embryonic
eml
emt6
en9f10
end1
end3
end5
endo-epithelial
endocardial
endocervix
endocervix-derived
endocrine
endocrine-paracrine
endoderm
endodermal
endometrium
endometrium-derived
endopolyploid
endopterygota
endorphin
endospore
endosteal
endothelial
endothelium
endothelium-derived
enkephalin
enteric
enterochromaffin-like
enterocrine
enterocyte
enteroendocrine
enucleate
enucleated
envam-12
enzyme
eoc
eol-1
eoma
eoma-gfp
eos-hl-60
eosinophil
eosinophilic
ep
ep-16
epc
ependymal
ependymoglial
epi
epiblast
epicardial
epidermal
epidermis
epidermis-derived
epidermoblast
epididymis
epinephrin
epinephrine
epithelial
epitheliocyte
epithelioid
epithelium
epithelium-derived
eplc-272h
epnt-5
epsilon
equatorial
er-
er4
erep
erythroblast
erythroblasts
erythrocyte
erythroid
erythroleukemic
erythrophore
es
es-095
es-2
es-c57bl
es-d3
es-e14tg2a
esk-4
esophageal
esophagus
esophagus-derived
ess-1
estradiol
eukaryotic
european
evsa-t
excretory
exocrine
experimentally
external
extracellular
extraembryonic
extraglomerular
eye
eye-derived
eyelid
eyfp
ezz
f-5
f-c87
f-d96
f-m91
f-m96
f-p89
f-p95
f-p96
f1
f11
f11b
f18
f19
f2
f24
f25
f3
f32
f3b6
f4
f45j
f4n
f5
f5-a-1
f8
f89
f9
f94
f95
f96
f98
fa
fadu
fak
fak–
fall
fao
farage
fast
fat
fate
fated
fathead
fb2
fb3
fb4
fb5
fb8h3
fbhe
fbl-j5
fbt
fc
fc-epsilon
fc100
fc101
fc102
fc104
fc106
fc107
fc108
fc109
fc11
fc110
fc112
fc113
fc114e
fc115
fc118
fc119
fc16
fc2
fc28
fc2lu
fc3tg
fc47
fc5
fc56
fc57
fc58
fc59
fc6
fc60
fc60a
fc60b
fc61
fc63
fc70
fc71a
fc77
fc79
fc81
fc83
fc87
fc94
fc95
fc96il2
fc96ls
fcwf-4
fd441
fdc-6
fdc-p1
fdcp-1
fdcp-mix
fe
fe92
fea4
fel
felv
female
femoral
fen
fenestrated
fer
ferret
fet-1c
fet-j
fetal
feyrter
ffc87m
fg
fg186
fg86
fgc
fgc4
fgc95
fgf96
fh
fh4
fh5
fh6
fh7
fhc
fhm
fhs
fib
fib-cl1
fib-cl10
fib-cl2
fib-cl3
fib-cl5
fib-cl6
fib-cl7
fib-cl8
fib-cl9
fib-dup1
fib-dup10
fib-dup11
fib-dup14
fib-dup15
fib-dup2
fib-dup3
fib-dup4
fib-dup5
fib-dup6
fib-dup7
fib-dup9
fib-ed3
fib-edii1
fib-edii11
fib-ediii5
fib-ediv2
fib-ediv4
fib-ip1
fib-ip2
fib-larsen1
fib-larsen2
fib-marfan1
fib-marfan3
fib-marfan4
fib-marfan5
fib-marfan6
fib-mor1
fib-nc13
fib-nc15
fib-nc16
fib-nc22
fib-nc23
fib-nc24
fib-nc25
fib-nc26
fib-nc27
fib-nc30
fib-nc42
fib-nc46
fib-nc54
fib-nc55
fib-nc56
fib-nc57
fib-nc58
fib-nc59
fib-nc60
fib-nc62
fib-nc63
fib-nc64
fib-nc65
fib-nc66
fib-nc67
fib-prol1
fib-prol2
fib-pse1
fib-pse12
fib-pse13
fib-pse14
fib-pse15
fib-pse17
fib-pse2
fib-pse26
fib-pse3
fib-pse32
fib-pse34
fib-pse35
fib-pse39
fib-pse40
fib-pse43
fib-pse44
fib-pse45
fib-pse46
fib-pse47
fib-pse50
fib-pse51
fib-pse52
fib-pse53
fib-pse54
fib-scle1
fib-scle10
fib-scle11
fib-scle12
fib-scle13
fib-scle14
fib-scle15
fib-scle16
fib-scle17
fib-scle18
fib-scle19
fib-scle2
fib-scle20
fib-scle21
fib-scle3
fib-scle4
fib-scle5
fib-scle6
fib-scle7
fib-scle8
fib-scle9
fib21
fib504
fiber
fibroblast
fibroblast-like
fibroblastic
fibrocyte
fibrosarcoma
figr
filament
filtration
fin
fin-derived
fish
fixing
fl
fl74-ucd-1
fl83b
fl88
flask
flatworm
flc
flight
flk-blv-044
floating
flow
fluid
fluid-derived
fly
flya13
flyrd18
fm3a
fm3ats
fmg87
fn86
fns
fo
fo-4
foam
foetal
follicle
follicle-derived
follicular
folliculostellate
folu
forebrain
foreskin
foreskin-derived
forest
form
founder
foveolar
fow
fox
fox-ny
fr
fr2
fr5
fraction
fran4
francois
franz
free-tailed
frhk-4
frog
frt
frt-fibro
frt-l
frt-u10
frtl
frtl-5
fruit
fry
fs
fs6
fshr-18
fshr-323
ft
ftc-133
ftc-238
fu-ov-1
fudr
fugu
fungal
fungi
fusion
fv93
g-292
g-3-5
g-361
g-401
g-402
g-7
g-8
g-a88
g-b90
g-c195
g-c92
g-c94
g-c95
g-f92a
g-f92f
g-f95
g-l88
g-m89
g-m95a
g-m95f
g-olig2
g1
g14d
g1b
g2
g253
g26
g28-5
g2a
g2b
g3
g4
g7-ova
g8
ga
ga-10
ga87
ga93
ga96
gaa85f
gabaergic
gabanergic
gad-1
gag
gai85f
galago
gall
gam
gamete
gamg
gamma-delta
ganglion
ganglion-derived
gap
garland
gastric
gastrin
gastrointestinal
gastropod
gastrula
gb95
gbm
gc-1
gc-2spd
gc95
gct
gd1t
gd1we
gdm-1
ge86
ge95
gecko
geep
geese
geg
gekko
gelu
general
genitalia-derived
genox
geoffroy
gerbil
germ
germinal
germinativum
gestational
gf
gf-d8
gfpu-1
gg87
ggp87f
gh
gh1
gh3
gh329
gh354
gh4-c1
ghrelin
gi-ca-n
gi-li-n
gi-me-n
gi95
giant
gibbon
gill-derived
gin
gingiva
gingiva-derived
gingival
gip
girardi
gk-5
gk1
gl
gl-1
gl-6
gl1
gl7
gland
gland-derived
glandular
glc-82
glial
glioblast
glioblastoma
glioma
gliosarcoma
globose
glomerular
glomerulus-derived
glomotel
glr
gluc
glucagon
glucocorticoid
glutamatergic
glya-negative
glya-positive
glycinergic
glycocalyx
glycogen
gm
gm2
gm86
gm87
gm95
gmk
gmme
gmms
gms-10
gn
go
goat
goblet
goeldi
gold
golden
golden-crowned
golgi
gonad-derived
gonadotropin
gonadtroph
gonocyte
gorilla
gos-3
gp
gp-16
gp2d
gp5d
gpc-16
gr-20
gr-96
gr-m
gr1-high
gr1-low
gr1-positive
gr431
gr95
granta-519
granular
granulated
granule
granulocyte
granulocytopoietic
granulosa
granulosum
gravity
gray
gray-cheeked
green
grey
grl101
growth
grunt
gs-9l
gs83f
gs83ls
gs93
gsml
gt186f
gt186ls
gt86f
gt86ls
guereza
guidepost
guinea
gum-derived
gut
gut-associated
gypsy
h-4-ii-e
h-a88
h-emc-ss
h1
h11
h18
h19-7
h1hela
h2
h3
h33hj-ja1
h36
h4
h4-ii-e-c3
h454
h460
h4ii
h4s
h4tg
h5
h69
h69ar
h69v
h9
h9c2
ha
ha-vsmc
haa1
haae-1
haae-2
hagfish
hair
hak
hamadryas
hamster
hanuman
hap-t1
haploid
har
hatching
hauschka
hb
hbe4-e6
hbl-100
hbs
hc-1
hcc202
hcc38
hcc70
hcc827
hce-2
hcn-1a
hcn-2
hct
hct-15
hct-8
hd
hd-my-z
hd168
hd2
hd2-4
hdlm-2
he
he-lu
he-sk
head
heart
heart-derived
hec-1-a
hec-1-b
heca-452
hecv
hek001
hel
hel92
hela
hela-s3
hela229
helper
hemangioblast
hematopoietic
hemocyte
henle
hensen
hep
hep-2
hep-2c
hep-3b
hep-g2
hep-sa
hep2
hepa
hepa-1c1c7
hepatic
hepatoblast
hepatoblastoma
hepatocarcinoma
hepatocyte
hepatoma
hepg2
hepm
heraklio
hermes-3
herring
hes
het-1a
heterocyst
heterokaryon
hf
hf1
hf1-5
hf19
hfae-2
hff-1
hff-2
hfff2
hfl
hfl1
hfn
hfob
hg-261
hgc-27
hgf
hgf-1
hgh-b
hh
hh-16
hiae-101
hiae-38
hiae-55
hiae-65
hiae-78
hig-82
high
hii3
hiif-d
hil12r1
hilus
himalayan
hip
hip-derived
hippocampal
hippocampus
his-purkinje
histamine
histaminergic
histoblast
hit-t15
hive-26
hive-55
hive-65
hive-78
hivs-125
hj1
hj2
hk
hk-2
hk-peg-1
hkb-11
hl
hl-60
hl60
hlf-a
hlk
hm2
hmcb
hmvii
hmy2
hn
hnk-1
ho-13-4
ho-2
ho-22-1
hoest
hol
hopc
hormone
horn
horn-derived
horse
hos
hot
howler
hp
hpac
hpae-26
hpaf-ii
hpb-all
hpd-1nr
hpd-2nr
hpme
hpv-16
hpve-26
hr
hr5
hr5-cl11
hrc
hrt-18
hrt-18g
hs
hs-21
hs-27a
hs-5
hs-sultan
hs1
hs27
hs432
hs68
hs888lu
hs913t
hsb-2
hscf220
hscf248
hsdm1c1
hsf
hsfpd
hsg
hsv-2
ht
ht-144
ht-2
ht-29
ht-3
ht115
ht2
ht29
ht55
htc
htert
htert-hme1
htk-
htlv-iiib
htr
htta-1
htz17be
huc-fm
hufasm3
hufasm38
human
humidity
huns1
hup-t3
hup-t4
hut
hutu
huv-ec-c
huve-12
huvs-112d
hvs-silva
hx
hy3-11
hyalocyte
hybrid
hybridoma
hydei
hypercldb
hypertrophic
hyphal
hypocretin-secreting
hypodermal
hypodermis-derived
hypothalamus
i-10
i-11
i-13
i-2
i-b92
i-p94
i1-hybridoma
ia-xs
ia-xssbr
ib-rs-2
ib3-1
ib4
ibrs-2
ic-21
ic86
icr
icr-2a
ie-10
ie-3
iec-18
iec-6
ifgcp-f1ba10
ig
ig-24
ig88il2
ig88ls
iga
iga001
iga004
iga005
iga007
iga008
iga009
iga010
iga013
iga015
iga016
iga017
iga018
iga020
iga022
iga024
iga026
iga028
iga031
iga033
iga036
iga040
iga058
iga063
iga188
igd
igd-negative
igd-positive
ige
igel
igf-ir
igf001
igf002
igf003
igf004
igf005
igf006
igf007
igf008
igf009
igf010
igf011
igf012
igf013
igf014
igf015
igf016
igf017
igf018
igf019
igf020
igf021
igf022
igf023
igf024
igf025
igf026
igf027
igf028
igf029
igf030
igf031
igf032
igf033
igf034
igf035
igf036
igf037
igf038
igf039
igf040
igf041
igf042
igf043
igf044
igf045
igf046
igf047
igf048
igf049
igf050
igf051
igf052
igf053
igf054
igf055
igf056
igf057
igf058
igf059
igf060
igf061
igf062
igf063
igf064
igf065
igf066
igf067
igf068
igf069
igf070
igf071
igf072
igf073
igf074
igf075
igf076
igf077
igf078
igf079
igf080
igf081
igf082
igf083
igf084
igf085
igf086
igf087
igf088
igf089
igf090
igf091
igf092
igf093
igf094
igf095
igf096
igf097
igf098
igf099
igf100
igf101
igf102
igf103
igf104
igf105
igf106
igf107
igf108
igf109
igf110
igf111
igf112
igf113
igf114
igf115
igf116
igf117
igf118
igf119
igf120
igf121
igf122
igf123
igf124
igf125
igf126
igf127
igf128
igf129
igf130
igf131
igf132
igf133
igf134
igf135
igf136
igf137
igf138
igf139
igf140
igf141
igf142
igf143
igf144
igf145
igf146
igf147
igf148
igf149
igf150
igf151
igf152
igf153
igf154
igf155
igf156
igf157
igf158
igf159
igf160
igf161
igf162
igf163
igf164
igf165
igf166
igf168
igf169
igf170
igf171
igf172
igf173
igf174
igf175
igf176
igf177
igf178
igf179
igf180
igf181
igf182
igf183
igf186
igf187
igf200
igf201
igf740
igg
igg-11h4
igg-11h9
igg-1b3
igg-1c6
igg-1d2
igg-2a4
igg-2f1
igg-3b2
igg-4a4
igg-5d7
igg-6a6
igg-7d4
igg-9d5
igg-b16
igg-ib7
igg-negative
igg-positive
igh-2
igl001
igl002
igl003
igl004
igl005
igl006
igl007
igl008
igl009
igl010
igl011
igl012
igl013
igl014
igl015
igl016
igl017
igl018
igl019
igl020
igl021
igl022
igl023
igl024
igl025
igl026
igl027
igl028
igl029
igl030
igl031
igl032
igl033
igl034
igl035
igl036
igl037
igl038
igl039
igl040
igl041
igm
igr-1
igr-37
igr-39
igrov-1
iguana
igv001
igv003
igv005
igv006
igv008
igv009
igv010
igv011
igv017
igv025
igv028
igv029
igv030
igv032
ii
ii-3
ii-4
iia
iib
iii
iii8c
il-1
il-2
il-a11
il-a29
il-a30
il-a42
il-a51
ilb1-h21
ilb1-h34
ilb1-h6
ilb1-h67
ileocecal
ileum
ileum-derived
iliac
im
im-9
im7
imaginal
img-375
img-478
img-484
img-492
img-493
img-608
img-610
img-630
img-636
img-638
img-639
img-649
img-650
img-653
img-655
img-656
img-667
img-672
img-673
img-674
img-675
img-676
img-678
img-679
img-683
img-688
img-691
img-694
img-695
img-706
img-707
img-709
img-711
img-723
img-724
img-725
img-726
img-728
img-729
img-730
img-733
img-734
img-736
img-740
img-743
img-747
img-758
img-759
img-761
img-763
img-765
img-766
img-767
img-768
img-769
img-771
img-773
img-774
img-775
img-776
img-778
img-780
img-785
img-787
img-788
img-796
img-797
img-807
img-809
img-810
img-811
img-817
img-819
img-823
img-824
img-826
img-827
img-831
img-847
img-856
img-857
img-858
img-884
img-895
img-905
img-906
img-907
img-908
img-909
img-911
img-915
img-920
img-921
img-925
img-926
img-933
img-934
img-935
img-936
img-938
img-939
img-940
img-941
img-944
img-946
img-947
img-948
img-949
img-962
img-963
img-964
img-965
img-966
img-968
img-969
img-971
img-972
img-973
img-978
img-982
img-983
img-984
img-985
img-988
img-989
img-990
img-991
img-994
img-995
img-996
img-997
img-998
img-999
imm002
immature
immortal
imr
imr-31
imr-32
imr-33
imr-5
imr-90
inactive
indian
inferior
inguinal
innate
inner
insulating
insulin
int
integrin
interatrial
intercalated
interdental
interferon-gamma
interfollicle
interleukin-4
interlobular
interlobulary
intermediate
internal
interneuromast
interneuron
internodal
interplexiform
interrenal
interstitial
interventricular
intervertebral
intestinal
intestine
intestine-derived
intraepithelial
intrahepatic
intralobular
invariant
invertebrate
ion
ionocyte
ip-1b
ip1pv
ip2-e4
ip2pv
ipc-298
ipi-1
ipi-2i
ipl-ld-65y
iplb-21
iplb-ld-65z
ipn
iridoblast
iridophore
iris
iron
is94
ischium-derived
ishikawa
island
islet
ist-mel1
ist-mel2
ist-mel3
ist-mes1
ist-mes2
ist-sl1
ist-sl2
it
iu
iv
iv95
iva12
ivd12
izs
j-774
j-96
j1
j1-31
j11d
j1j
j26
j26cw3
j27
j27-b7
j27-neo
j3
j45
j5-1
j5-2
j558
j558l
j6
j774
j774a
j82
ja
jaa-f11
japanese
jar
jawsii
jay
jb
jb6
jc
je
jeg-3
jejunum
jelly
jensen
jf1
jf5
jh4
jii1
jiii
jiyoye
jk-1
jls-v5
jls-v9
jm
jm1
jm2
jo
jo1-1
joint
joint-derived
jon
josk-i
josk-m
jr
jr-gal
jr8
jro1-27
jsc-1
jtc-15
jtc-19
jtc-27
junction-derived
jurkat
juvenile
juxtaglomerular
jvm-13
jvm-2
jvm-3
k-1
k-2
k-234
k-562
k-balb
k1
k117
k12
k129sv
k2
k20
k204
k22
k29
k2b-12h
k45
k562
k6
k66
k6h6
k99
karpas-299
karpas-422
karpas-45
kasumi-1
kasumi-3
kasumi-4
kasumi-6
kato
kb
kb-3-1
kb-v1
kc
kc-4g3
kc-4m1
kc7
kcb
kco
kcsv
kd2sv
ke
ke-2
ke-37
kel
kel-1
kel-2
kelly
kenya
kenyon
keratin
keratinized
keratinizing
keratinocyte
keratocyte
kertr
kf1sv
kg-1
kg-1a
kg7
khos
khos-240s
khos-312h
khos-321h
kidney
kidney-derived
kidtr
kiki
killer
kimol
kimolts
kimsv
king
kit
kit-low
kit-negative
kit-positive
kl277
kl295
kl304
kle
kln
km-h2
km114
km201
km703
km81
kma
kmc8
kmi6
kmoe-2
kmp
kn2
kna
knee
knrk
ko
kolmer-agduhr
kpl-1
kr-12
krj-1
kshs
ktp
ktr
ku-812
ku812
ku812e
ku812f
kupffer
kusimanse
kyse-140
kyse-150
kyse-180
kyse-270
kyse-30
kyse-410
kyse-450
kyse-510
kyse-520
kyse-70
l
l-132
l-14
l-2
l-363
l-428
l-540
l-68
l-929
l-a-1b
l-a86
l-alpha-1a
l-alpha-2a
l-alpha-2c
l-b7
l-c90
l-cat2
l-cell
l-cells
l-dqw1-dw12
l-dqw4-dw15
l-dr2-dw12
l-dr4-dw15
l-dr92a
l-dr92f
l-f95
l-hso2
l-like
l-m
l-m92
l-ngc-5ht2
l-ngc-alpha2b
l-v91
l-v94
l-z93a
l-z93f
l101
l105
l11
l12
l132
l138
l14
l164
l165
l166
l168
l17
l18
l2
l2-ryc
l201
l203
l21
l227
l23
l230
l231
l235
l243
l25
l2i-6
l3
l35
l368
l45
l5
l52
l54
l57
l6
l612
l6c5
l6h2
l6j1
l8
l89
l89m
l89p
l90
l91
l929
l929s
l94
la
la-4
la1
la3ß2mhc2
la7
la92
la96
labyrinth
lacrimal
lactiferous
lacz
lacz7
ladmac
lama-84
lama-87
lamellocyte
lamina
lan-1
lan-188
lan-5
lan96
langerhans
langerhans-derived
langerin-negative
langerin-positive
langur
lap
laq
larb1
large
larva-derived
larval
larynx-derived
lat
late
lateral
layer
layer-derived
lb
lb10
lb11
lb3
lb9
lbe88
lbln
lbrm
lbrm-33
lc
lc-540
lc540
lchm
lcl
lcl-hiv
lcl-ho
lcl-n
lcl-wei
lclc-103h
lclc-97tm1
ldr
ldr2a
ldr2b
ldr7
ldr8
le
leading
lec1
lec2
lec8
left
leg
leg-derived
lei
leii
lek
lemur
lens
lensed
leptomeningeal
lesa
lesser
leucoblast
leucophore
leukemia
leukemic
leukocyte
leukocyte-endothelial
leydig
lf-cl2a
lfc16
lhr-29
lhr-74
lhrh-a1
li
lieberkuhn
ligament
ligament-derived
light
like
limb
limiting
lin
line
lineage
lineage-negative
lining
liontail
littoral
lived
liver
liver-derived
lk
lk-4
ll
ll24
ll29
ll47
ll86
llc-mk
llc-pk
llc-rk
llc-rk1
llc-wrc
llc1
lm
lm-m92
lm2
lm96
lmas96
lmh
ln
ln-18
ln-229
ln-405
lncap
lnm
lnzta3wt11
lnzta3wt4
lo
lo-22
lobe-derived
lobular
loc
london
long
long-tailed
loop
looper
loris
lot
lou-nh91
loucy
lovo
lower
lp-1
lp1
lp3iig2
lp4
lp96
lpp
lprb3
lr3
lr6
ls
ls-136
ls1
ls123
ls132
ls174t
ls180
ls3-10
ls411n
ls513
lt
lt89
lt94
ltk-
ltk-11
ltpa
ltr228
lu
lubricant
ludlu-1
lugaro
luminal
lung
lung-1
lung-derived
lung-first
lung-fourth
lung-second
lung-third
lungs-derived
luteal
luteinizing
lx20
lxf-289
lxsn
ly-76
ly-r
ly-s
ly1
ly49ci-negative
ly49ci-positive
ly49d-negative
ly49d-positive
ly49h-negative
ly49h-positive
lyk-1
lyk-12
lyk-16
lyk-5
lyk-7
lyk-8
lyk-9
lym-1
lym-2
lymph
lymph-derived
lymphangioblast
lymphatic
lymphocyte
lymphoid
lymphoma
lysozyme
l–
m
m-07e
m-1
m-24
m-2e6
m-3
m-7
m-b87a
m-b87f
m-b95a
m-b95f
m-c95
m-cell
m-f92
m-g89
m-g93
m-l94
m-l95a
m-l95f
m-like
m-m196
m-m96
m-msv-balb
m-n91
m-nfs-60
m-p88
m-p91a
m-p91f
m-r89
m-r95
m-t95a
m-t95f
m-v94
m059j
m059k
m1
m138
m15
m17
m18
m195
m1rk
m1wt2
m1wt3
m1wt5
m2
m3
m3e3
m3wt4
m3wt5
m3wt8
m4
m5
m8
m83
m85
m86
m9
m90
ma
ma-104
ma1-6
ma104
ma2
ma86
ma91
ma94il2
ma94lebv
mab
mab104
mab23
mab35
mab64
mab8h3
mac
macaque
macroconidium
macroglial
macrophage
macrophage-like
macula
macular
madison
mado
magnocellular
main
malassez
male
malme-3
malme-3m
malpighian
mam94m
mammalian
mammary
mammosomatotroph
mammotroph
mandrill
mangabey
mantle
mar
marc
marginal
marmoset
marrow
marrow-derived
mass
mast
mat
mat-lu
mat-ly-lu-b-2
mat-lylu
mater
matrix
mature
may
mb
mb-020
mb-021
mb-03
mb-03c4
mb-04
mb-iii
mb-l11
mb-l2
mb16tsa
mb19tsa
mb23g2
mb352
mb355
mb40
mb4b4
mba
mbc
mbl-sm-1a6
mbl-sm-4b1
mc
mc-116
mc-6
mc-ixc
mc-sv-huc
mc116
mc2
mc3
mc3t3-e1
mc57g
mc86
mc88
mc94
mc96
mca
mca-rh
mccoy
mcf
mcf-10-2a
mcf-12a
mcf-12f
mcf-7
mcf7
mch-7
mch-82
mcl-5
mcr96m
mcs94mil2
mcs94mlebv
mct95m
md
md2
md86
md94plebv
md94sil2
md94slebv
md95
mda
mda-kb2
mda-mb-134-vi
mda-mb-157
mda-mb-175-vii
mda-mb-231
mda-mb-330
mda-mb-361
mda-mb-415
mda-mb-435s
mda-mb-436
mda-mb-453
mda-mb-468
mdbk
mdcc
mdck
mdck-a315
mdck-i
mdok
mdtc
mdtc-rp19
me
me-180
me195
me96
me96p
meatus
mec
meca-367
meca-79
meca-89
med
medaka
medulla
medullary
mef
mef-1
mefs
meg-01
megakaryocyte
megakaryocyte-erythroid
mel
mel-14
mel-ho
mel-juso
melanoblast
melanocyte
melanogaster
melanoma
melanophage
melc
membrane
membrane-derived
memory
meningeal
meningothelial
merkel
mes
mes-sa
mesangial
mesenchymal
mesenchyme
mesenteric
meshwork
meso-epithelial
mesoderm-derived
mesodermal
mesonephric
mesonephros-derived
mesothelial
mesothelial-ciliated
mesothelium-derived
met-5a
meta
meta-1
meta-10
meta-7
metabolising
metal
metallophillic
metamyelocyte
metanephric
metastatic
mewo
mf
mf-2
mf92
mfe-280
mfe-296
mfe-319
mfm-223
mfs6
mg
mg-63
mg38
mg96no
mga
mgf89p
mgh-u1
mgl95
mgp96na
mgt
mh
mh-22a
mh-s
mh-svm23
mh-svm25
mh-svm26
mh-svm33c9
mh1
mh1c1
mh55
mhc-ii-high
mhc-ii-low
mhc-ii-negative
mhc-ii-positive
mhec5-t
mhh-call-2
mhh-call-3
mhh-call-4
mhh-es-1
mhh-nb-11
mhh-preb-1
mhv
mia
micl1
microalgal
microcell
microconidium
microfold
microglia
microglial
micropylar
microvascular
midas
middle
midgut
mif-6
migrating
migratory
mil-6
milk
mimcd-3
mineralocorticoid
mink
minnow
minus
miopithecus
mitogenic
mitral
mix
mj
mk-d6
mk-s4
mkn-45
ml-1
ml-2
ml3
ml86
ml87p
ml89s
mla
mla87m
mle
mlg
mlh1
mlh2
mltc-1
mm14
mm15
mm15ot
mm16
mm19
mm22
mm23
mm27
mm29
mm2mt
mm2mtc
mm2sct
mm31
mm34
mm36t
mm36we
mm37t
mm3mg
mm4
mm41we
mm43t
mm44
mm45t
mm46t
mm47t
mm48t
mm49t
mm5
mm51
mm52
mm53
mm54
mm55
mm5mt
mm5mtc
mm5mtm
mm7-11
mm87f
mm87il2
mm87ls
mm96
mma
mmq
mmt
mn-11
mn-60
mn95
mn96
mnng
mo
mo-b
mog-g-ccm
mog-g-uvw
moh
moholi
molt-13
molt-14
molt-16
molt-17
molt-3
molt-4
molv
mom89m
mon
mongolian
mongoose
monkey
mono-mac-1
mono-mac-6
monoblast
monocyte
monocytic
monopoietic
mop-8
mopc
mopc-31c
mor
mortal
morula
mosquito
moth
mother
motile
motilin
mouse
moustached
mouth-derived
mp
mp90
mp95p
mpc
mpc-11
mpf
mpk
mpl96m
mpp
mpro
mpsv
mr
mr1
mr87
mrc-5
mrc-7
mrc-9
mrss-1
mrsv
ms
ms-5
ms1
ms751
ms95
msb1
msto-211h
msv
msvif-tk
msxl
mt
mt-3
mt-6
mt1
mt2
mt3
mt4
mt89
mtc
mtc-m
mtkp
mu
mu14
mucosa
mucosa-associated
mucosa-derived
mucosal
mucous
mucus
mueller
muller
multi
multi-cellular
multi-ciliated
multi-potent
multinuclear
multinucleate
multinucleated
multipotent
mulv
muntjac
muntjacs
murphy
mus
muscle
muscle-derived
musculus
mustached
mustelinae
mutz-1
mutz-2
mutz-3
mv
mv-4-11
mvi
mvpk-1
mx
mx-7
mx-82
mx1
mx2
my
my904
mya-1
myb
myc
mycetozoa
mycetozoan
myelin
myelinating
myeloblast
myelocyte
myeloid
myeloma
myoblast
myocardial
myocyte
myoendocrine
myoepithelial
myofibroblast
myogenic
myoid
myometrial
myotube
n-18
n-a90
n-b88
n-c96
n-s
n1
n1-s1
n18
n18tg2
n2
n22
n3
n3-36
n3s
n418
n4tg3
n92
na
na101
na95p
naive
nalm-1
nalm-6
namalwa
nancy
nasal
nasolacrimal
nasopharyngeal
native
nb
nb-100
nb-4
nb2-11
nb3
nb41a3
nbl-1
nbl-11
nbl-12
nbl-2
nbl-3
nbl-4
nbl-5
nbl-6
nbl-7
nbl-8
nbl-9
nbt-ii
nc
nc-37
nc-nc
nc95
nccit
nce-f161
nci-bl128
nci-bl209
nci-h128
nci-h146
nci-h187
nci-h196
nci-h209
nci-h211
nci-h220
nci-h226
nci-h23
nci-h250
nci-h28
nci-h292
nci-h295
nci-h295r
nci-h322
nci-h345
nci-h358
nci-h378
nci-h441
nci-h446
nci-h460
nci-h498
nci-h508
nci-h510a
nci-h520
nci-h522
nci-h524
nci-h526
nci-h548
nci-h596
nci-h630
nci-h647
nci-h650
nci-h660
nci-h661
nci-h676b
nci-h69
nci-h711
nci-h716
nci-h719
nci-h720
nci-h727
nci-h735
nci-h740
nci-h747
nci-h748
nci-h774
nci-h810
nci-h82
nci-h820
nci-h835
nci-h838
nci-h841
nci-h847
nci-h865
nci-h889
nci-h920
nci-h929
nci-h969
nci-n87
nctc
nd-c
nd-e
nd-u1
nd15
nd27
nd3
nd7
nd8
ne
neck
neck-derived
necrotic
nef26
nef36
neg
negative
nematoda
neo
neob7
neobatrachia
neoplastic
neopu
neot
nephrocyte
nephrogenic
nephron
nerve
nervous
neural
neurecto-epithelial
neurectodermal
neuro-2a
neuroblast
neuroblastoma
neuroendocrine
neuroepidermoblast
neuroepithelial
neuroglioblast
neuromast
neuron
neuronal
neuroplacodal
neurosecretory
neutrophil
neutrophilic
nf-1
nf96
nf96il2
nfpe
nfs-25
nfs-5
nfs-70
ng96
ng96il2
ngm96
ngp96
nguk-1
nh17
night
nigra
nih
nih-3t3
nih-3t3d4
nine-banded
nis
nit-1
nit-2
nitrogen
nk
nk-92
nk-92mi
nk1
nkga2-positive
nl20
nl20-ta
nm94
nm95
nmu
nmu3li
nmuli
nmumg
nn-3
nn-4
nn-5
nob-1
nocireceptor
nodal
node
nol
non
non-branched
non-classical
non-myelinating
non-nucleated
non-parenchymal
non-phagocytic
non-pigmented
non-striated
non-terminally
nonglandular
nongranular
nonkeratinized
nonmuscle
nonparenchymal
nonphagocytic
nor-10
noradrenergic
norepinephrine
northern
norvegicus
nose
notochordal
np
nr1
nrbm
nrk
nrk-49f
nrk-52e
ns
ns-1
ns0
ns1
ns20y
nsi
nso
nt
nt2-d1
ntera-2
nthy-ori
nthy-ts1
nuc-1
nuc-5
nucleate
nucleated
nuclei
nucleus
nucleus-derived
nulli-scc1
nuocyte
nurse
nv96
nv96il2
nzp-12
nzp-29
nzp-36
nzp-46
nzp-60
o-b94a
o-c94
o88m
o88p
oa1
oa3
oa4
oak
oaw28
oaw42
obliquely
oblongata-derived
oc
oci-aml2
oci-aml5
od-3
odontoblast
odontoclast
odontocyte
oe19
oe21
oe33
oe47
oe50
oenocyte
off-bipolar
ohh1
ohio
ok
okm
okp-gs
okt
ol95
olfactory
olga-ph-j
oligodendrocyte
oligopotent
om
om87
om87p
omega-e
omentum
omk
oml
on-bipolar
oncocyte
ooblast
oocyte
oogonial
oospore
op9
open
opm-2
opossum
oral
orangutan
organ
organ-derived
organism
organism-derived
orl
orr
orthochromatic
orthochromatophilic
oryx
os
osteoblast
osteoblast-like
osteoblastic
osteoclast
osteocyte
osteogenic
osteoprogenitor
osu1
ot
ot87m
oth-74d4
otic
ou6
oua
ouar
outer
ov
ov-90
ov-ca
oval
ovar
ovarian
ovary
ovary-derived
ovb-3
ovcar-3
ovcar-5
oviduct
ovis
ovnis
oxygen
oxyphil
oxytocin
p-1
p-19
p-190
p-6
p-815
p-9
p-b88
p-b91
p-b92
p-c96
p-d89
p-d91
p-d94a
p-g96
p-l92
p-nc94
p-r90
p-s90
p-s96
p-tyr-1
p1
p116
p12
p12-ichikawa
p120
p19
p1bb1
p2
p22
p25
p3
p388
p388d
p3d
p3h3
p3hr-1
p3np
p3u1
p4
p53nis1
p815
p92
p93
p95
pa
pa-1
pa1-cef
pa2
pa317
pa90p
pa94
pa95p
pa96
pab
pab-100
pab-122
paca-2
pacemaker
pacific
pain
pair
paired
palatal
palate-derived
panc
panc-1
pancreas
pancreas-derived
pancreatic
panda
paneth
papilla
papillary
paraaortic
paracrine
parafollicular
paraganglia
paraganglial
paraganglion
paranasal
parathyoid
parathyroid
parenchymal
parietal
parotid
pars
part
part-derived
parvocellular
patas
patch
pb-1
pb5
pbr86m
pc
pc-12
pc-14
pc-3
pca
pca90m
pcc4
pcv87m
pd
pd5
pdl-1
pe
pe86p
pe96
pea
peakrapid
peccary
pedal
peer
peg
pek
pelvic
pelvis
penis-derived
peptic
peptide
pere
periarticular
pericardial
pericardium-derived
pericyte
peridermal
peridontal
periglomerular
perijunctional
perineural
perineuronal
periodontium
periperhal
peripheral
perirenal
peritoneal
peritoneum
peritoneum-derived
peritubular
perivascular
permanently
peyer
pf-382
pf187
pf90f
pfeiffer
pfhr
pfn
pfsc
pfsk-1
pg
pg-4
pg13
pg91
pga86m
pgsa-745
pgsb-618
pgsb-650
pgsc-605
pgsd-677
pgse-606
pha
phagocyte
phagocytic
phalangeal
pharyngotympanic
pharynx-derived
pheochromocytoma
phi
phl
photopic
photoreceptor
photosynthetic
pi
pi-11
pi1
pi86
pig
pig-tailed
pigment
pigmented
pike
pileated
pillar
pineal
pinealocyte
pituicyte
pituitary
pk
pk-2a
pk-82
pk13
pk136
pl
pl45
pl90
placenta-derived
placental
planktonic
plantain
plasma
plasmablast
plasmactyoid
plasmacytoid
plasmatocyte
plate
platelet
platyfish
plb-985
plc
pleura
pleural
plexus
plexus-derived
plhc-1
pluripotent
plus
pm195
pm85
pm87f
pm87il2
pm89
pm91
pm95
pma95m
pmc2
pmj2-pc
pmj2-r
pmk
pml
pn86
pneumocyte
pnt
pnt1a
pnt2
po-2
podocyte
polar
pole
polychromatic
polychromatophilic
polygonal
polymodal
polyomavirus
polyploid
polytene
pore
porthos
positive
post
posterior
pot
potoroo
pp
ppes
pq
pr
pr-1
pr8
pr82
pr86s
pre-b
pre-b-i
pre-b-ii
pre-bcr
pre-conventional
pre-natural
pre-pro
preadipocyte
preameloblast
prebcr-negative
prebcr-positive
precementoblast
prechondroblast
premigratory
preodontoblast
preosteoblast
prepuce
prespore
pressoreceptor
prestalk
prf
prickle
primary
primitive
primordial
principal
pro-b
pro-nk
pro-t
proboscis
procrystal
proerythroblast
professional
progesterone
prohemocyte
prokaryotic
prolactin
promonocyte
promyelocyte
pronephric
pronephros-derived
propak-a
propak-x
propaka
proper
propria
prost
prostate
prostatic
protein
protostomia
proximal
pro–5
prsv-t
ps
ps192
ps87p
ps92
ps94
ps95
psa1
psa1-ng2
psg1
psi
psi-2
psi-cre
psi-crip
psm-b
psn1
psp
psp-36
pstab
psto
pt
pt-k75
pt67
ptk1
ptk2
pu-518
pu5-1
pu5-1r
pulmonary
pulp
pulposus
pupil
pupillae
purkinje
putko
pv1
pv95
pvbc-cl247
pvbc-cl248
pvbc-eds120
pvbc-eds147
pvbc-eds148
pvbc-eds149
pvbc-eds150
pvbc-eds155
pvbc-eds170
pvbc-eds188
pvbc-eds203
pvbc-eds211
pvbc-eds213
pvbc-eds220
pvbc-eds223
pvbc-eds27
pvbc-eds285
pvbc-eds487
pvbc-eds528
pvbc-eds546
pvbc-eds547
pvbc-eds550
pvbc-i385
pvbc-mf115
pvbc-mf255
pvbc-mf256
pvbc-mf257
pvbc-mf267
pvbc-mf268
pvbc-mf269
pvbc-mf270
pvbc-mf354
pvbc-mf375
pvbc-mf376
pvbc-mf377
pvbc-mf422
pvbc-mf423
pvbc-mf424
pvbc-mf448
pvbc-mf538
pvbc-oi
pvbc-oi108
pvbc-oi121
pvbc-oi127
pvbc-oi129
pvbc-oi133
pvbc-oi157
pvbc-oi158
pvbc-oi159
pvbc-oi160
pvbc-oi161
pvbc-oi164
pvbc-oi165
pvbc-oi172
pvbc-oi184
pvbc-oi185
pvbc-oi186
pvbc-oi187
pvbc-oi189
pvbc-oi193
pvbc-oi197
pvbc-oi204
pvbc-oi205
pvbc-oi206
pvbc-oi217
pvbc-oi227
pvbc-oi228
pvbc-oi230
pvbc-oi234
pvbc-oi250
pvbc-oi254
pvbc-oi265
pvbc-oi271
pvbc-oi272
pvbc-oi273
pvbc-oi274
pvbc-oi275
pvbc-oi276
pvbc-oi277
pvbc-oi284
pvbc-oi291
pvbc-oi299
pvbc-oi305
pvbc-oi306
pvbc-oi307
pvbc-oi313
pvbc-oi314
pvbc-oi317
pvbc-oi325
pvbc-oi330
pvbc-oi332
pvbc-oi340
pvbc-oi347
pvbc-oi348
pvbc-oi350
pvbc-oi356
pvbc-oi370
pvbc-oi371
pvbc-oi373
pvbc-oi378
pvbc-oi379
pvbc-oi380
pvbc-oi383
pvbc-oi384
pvbc-oi387
pvbc-oi388
pvbc-oi396
pvbc-oi427
pvbc-oi428
pvbc-oi433
pvbc-oi437
pvbc-oi440
pvbc-oi443
pvbc-oi444
pvbc-oi449
pvbc-oi452
pvbc-oi453
pvbc-oi460
pvbc-oi461
pvbc-oi462
pvbc-oi464
pvbc-oi465
pvbc-oi466
pvbc-oi467
pvbc-oi471
pvbc-oi488
pvbc-oi489
pvbc-oi499
pvbc-oi500
pvbc-oi522
pvbc-oi531
pvbc-oi535
pvbc-oi540
pvbc-oi55
pvbc-oi553
pvbc-oi555
pvbc-oi559
pvbc-oi65
pvbc-oi82
pvbc-pr110
pvbc-pr152
pvbc-pr260
pvbc-pr98
pvcb-eds516
pwr-1e
px92
py
pygmy
pyramid
pyramidal
pyrenocyte
pys
pys-2
pz-hpv-7
q
q-cell
q-like
q-p96
qcrl-1
qcrl-3
qimr-wil
qm7
qnr
qpn1
qt
qt6
quail
quarternary
quiescent
qv-r94
r-a95
r-b92
r-c95
r-c95a
r-c96
r-dc90a
r-dc90f
r-g196
r-g94a
r-g94f
r-g96
r-m94
r-m95
r-p
r-r92
r-s95
r-t96
r1
r1-2
r1-5d9
r17
r187
r1e
r1h-l
r2
r2-9a5
r2c
r2lbln
r3
r4
r4-6a2
r5
r6
r63
r7
r74
r8
r86
r9
r95
r9ab
ra
ra3-2c2
ra3-3a1
rab-9
rabbit
raccoon
radial
radiata
rag
rainbow
raji
ramos
ramos-aw
ramos-ehrb
ran
ran-2
range
raphe
rasheed
rasmc
raszip
rat
rat-2
rat1-r12
rat2
rattus
ratv-nrk
raw
ray
rba
rbl
rbl-1
rbl-2h3
rc
rc-4b
rce
rd
rd-es
rd91
rdp
rec
receptive
receptor
recta
rectum
rectum-derived
red
red-1
red-4
red-5
red-6
red-bellied
red-cell
red-cheeked
red-chested
red-crowned
region-derived
regular
regulatory
reh
releasing
ren
renal
rene
rent
res
resident
respiration
respiratory
responsive
resting
restricted
reticular
reticulocyte
reticulocytes
retina
retina-derived
retinal
retinoblastoma
rf
rfe88
rfgd10we
rfgd11we
rfgd12we
rfgd2we
rfgd3we
rfgd4we
rfgd5we
rfl-6
rg11
rg2
rg7
rg9
rge
rh
rhesus
rhfs-mpmv
rhomboid-derived
ri-1
rialpha-high
rialpha-low
rib-derived
ric
rifkin
right
riiimt
riken
rin-14b
rin-5f
rin-m
rin-m5f
ring-tailed
rk
rk13
rk3e
rko
rko-as45-1
rko-e6
rl
rl-65
rl95-2
rlc
rlc-18
rld-1
rle-6tn
rlsd06
rlsd09
rltm01
rltm02
rm86
rm91
rmb-1
rmc
rmcb
rmr96
rmz
rn
rn1t
rn2t
rn6t
ro
ro1
ro3
ro82-w-1
rob
rod
ron
root
rostral
round
roy
rp
rp88
rpc5
rpe-1
rpe-j
rpmi
rr-choki
rram1
rs
rs-537
rs4
rsc96
rsoi
rt
rt-112
rt101
rt112
rt3-t3
rt4
rt4-d6p2t
rtg-2
rtg-p1
rtgill-w1
rth-149
rto
ru
ruminstitut
russell
rv-c2
rvh-421
rvp3
rw
rwpe-1
rwpe-2
rwpe2-w99
s-117
s-180
s-c88
s-c93
s-d92a
s-d92f
s-d92v
s-f95
s-g87
s-g94
s-l90a
s-l90f
s-l95a
s-l95f
s-n87
s-p95
s-ps
s-r96
s-s
s-t92a
s-t92f
s1
s13ba3
s194
s1a
s1e4
s2
s3
s3d3
s49
s4b6-1
s5
s6f1
s9
sa13
sa22
sa87f
sa87ls
sa88
sa88f
sa88ls
sac
sac-derived
sacrum-derived
saddlebacked
sai
saki
sal
salivary
salmon
salmonidae
san
saos-2
sar
sarcoma
satellite
sbac
sbc-2
sbc-7
sbr
sbv86m
sc
sc-1
sc-71
sc-75
sc5
sca-9
sca1-positive
scaber
scaffold
scalp-derived
scc-15
scc-25
scc-4
scc-9
scc-psa1
sccr
schneider’s
schwann
sclc-21h
sclc-22h
scleral
scolopidial
scolopidium
scotopic
scp
scrf
sct
sd-1
se-
se-1
se95il2
se95ls
seam
sebaceous
sebum
secretin
secretory
sel
seminal
seminiferous
sen
sensing
sensitive
sensory
sensu
septal
septum
ser-w3
seromucus
serosal
serotonergic
serotonin
serous
sertoli
serum
sexual
sf
sf-158
sf-21
sf-9
sf1-1
sf1ep
sf9
sfme
sfr3-dr5
sfr8-b6
sg
sg88p
sg94
sga96m
sge-1
sgs
sh-34
sh-4
sh-sy5y
sh2
sh3
sh4
shd
sheath
sheep
shh
shi
shm-d33
shok
short
shoulder-derived
shp-77
shs
siamang
sifaka
sig-m5
sigmoid
signaling
siha
silk
silkmoth
silvery
sima
simple
single
single-positive
sinoatrial
sinus
sinusoid
sirc
sirpa-negative
sirpa-positive
siso
sj-n-kp
sjd
sjl
sjmrf
sjrh30
sjsa-1
sk
sk-br-3
sk-co-1
sk-es-1
sk-hep-1
sk-lms-1
sk-lu-1
sk-mel-1
sk-mel-2
sk-mel-24
sk-mel-28
sk-mel-3
sk-mel-30
sk-mel-31
sk-mel-5
sk-mes
sk-mes-1
sk-mm-2
sk-n-as
sk-n-be
sk-n-dz
sk-n-f1
sk-n-fi
sk-n-mc
sk-n-sh
sk-nep-1
sk-ov-3
sk-pn-dw
sk-ut-1
sk-ut-1b
skeletal
skeletogenic
ski
skin
skin-derived
sknsh88
sko-007
skw
skw-3
sl
sl-29
sl4
slamf1-negative
slamf1-positive
slc87m
slender
slow
sm86p
sm96p
small
small-eared
smc-1
smc-bn1
smc-bn2
smc-rg
smc-rv
smc-yos1
smc-yos2
smc87
smc95s
sml
smooth
smt
snb-19
snu-1
snu-16
snu-182
snu-387
snu-398
snu-423
snu-449
snu-475
snu-5
snu-c1
snu-c2a
snu-c2b
sob-15
socket
sockeye
sodk1
soft
sol8
som-4d10
somatic
somatostatin
somatotroph
somatotropin
south
sp
sp1k
sp2
sp87m
spc-bm-36
sperm
spermatid
spermatocyte
spermatogonium
spev
spev-13-d5-tk-
spg
spherical
sphincter
spi-801
spi-802
spider
spinal
spindle-derived
spinosum
spix
spleen
spleen-derived
splenic
spongiotrophoblast
spore
sqmk-fp
squamate
squamous
squirrel
sr
sr-786
sr95f
src
ss86
ss92
ss95
sse
sse-5
ssn-1
st
st-2
st486
sta88m
stage
stalk
statens
ste-137
stellate
stem
stem-cell
sternum-derived
steroid
stimulating
stk
sto
stomach
stomach-derived
storage
str
straight
strain
stratified
stratum
stretch
strial
striated
striatum
stromal
structural
structure-derived
stuff
su
su-dhl-1
sub
subcapsular
subclone
subcutaneous
subepithelial
subline
sublingual
submandibular
subscript
substance
substantia
sulcus-derived
sumatran
sunfish
sup-b15
sup-t1
super
superficial
superior
supportive
suppressor
supra-orbital
surface
surfactant
suspension
sustentacular
sv
sv-huc-1
sv-t2
sv1
sv2
sv3t3
sv3t3b
sv40
sv40lt-smc
sv63
sv7tert
svct
svec4-10
svg
svr
sw
sw-13
sw-403
sw-480
sw-948
sw10
sw403
sw48
sw480
sw527
sw579
sw620
sw626
sw756
sw837
sw948
swamp
sweat
swiss
swiss-3t3
switched
swla1
swla2
swla3
swordtail
swr
syf
syncytial
syncytiotrophoblast
synovial
syrian
system-derived
t
t-2
t-47d
t-al
t-c90
t-cell
t-d94
t-f96
t-g88
t-helper
t-like
t-m95a
t-m95f
t-p90
t-p92
t-p92i
t-p92ii
t-r96a
t-r96f
t-regulatory
t-s90
t1
t1-73
t2
t200–a
t24
t27a
t3
t3-3a1
t4
t84
t84m
t85
t93
t98g
ta
ta-1
ta-109
ta-2
ta3
tac-1
tahr
tail-derived
tak3
tal
talapoin
tall-104
tam
tamarin
tanoue
tanycyte
tao
taste
tb
tb-5
tb1
tb6-3
tbm-54
tc-1
tc1
tc17
tc2
tc86p
tc96
tccsup
tcmk-1
td
te
te-671
te15
te16
te19
te3
te39
te4
te671
te7
te8
te85
tears
tek
telencephalon-derived
temporal
tendon
tendon-derived
tep
tera-1
tera-2
term
terminal
terminally
terrapene
tertiary
tes
testis-derived
testosterone
tf-1
tf-1a
tf1
tfk-1
tfta1
tftb1
tg
tg1
tg2
tg6
tgp
tgp47
tgp49
tgp52
tgp55
tgp61
th
th-1
thb-5
thb-7
theca
thecogen
thermoreceptor
thick
thigh-derived
thin
thle-2
thle-3
thm
thoracic
thorax-derived
thp-1
thromboblast
thrombocyte
thy
thy-1-a
thy-1-e
thy-1–b
thymic
thymocyte
thymus
thymus-derived
thyroid
thyrotroph
ti-1
ti-4
tick
tim
timi
tingible
tip
tips
tissue
tissue-derived
tissue-resident
titi
tk
tk-
tk-1
tk-lm
tk-ts
tk6
tk6tgr
tk–
tl
tl8x
tla96m
tm
tm-28
tm-34
tm-7
tm1
tm3
tm4
tm90
tm94
tm95
tm96p
tmm
tn-368
tn5
tna2
tnc
toad
toledo
ton
tongue
tongue-derived
tonsil
tonsil-derived
tonsillar
topminnow
torafugu
tormogen
tortoise
totipotent
tou
tov-112d
tov-21g
tpa-30-1
tps
tr
tr-ag-9-hprt-
tr1
tr33b
tr6
tr6bc1
tr88
tr96
tra-171
trabecular
trachea
trachea-derived
tracheal
trachealis-derived
trachebronchial
tracheoblast
tracheobronchial
tract
tramp-c1
tramp-c2
tramp-c3
transfer
transitional
transporting
transverse
transversely
trb
tree
trichogen
trigone
trophectodermal
trophoblast
trout
true
trunk
ts
ts1
ts13
ts2
ts3
tsc2
tsf86m
tshr-r5t-34
tshr-r5t-44
tshr-t5-51
tss1
tt
ttd10pv
ttd11pv
ttd1pv
ttd2pv
ttd3pv
ttd4pv
ttd5pv
ttd6pv
ttd7pv
ttd8pv
ttd9pv
ttdh10pv
ttdh11pv
ttdh12pv
ttdh1pv
ttdh2pv
ttdh3pv
ttdh4pv
ttdh5pv
ttdh6pv
ttdh7pv
ttdh8pv
ttdh9pv
tu
tube
tubule
tubule-derived
tufted
tunica
tur
turkey
turnip
twerc
tympanic
type
type-1
type-2
type-3
type-4
type-5
type-6
type-7
u-118
u-138
u-138-mg
u-2
u-251
u-266
u-343
u-373
u-698-m
u-87
u-937
u373
u87
u937
uacc-812
uacc-893
uc1b
uc1bc1
uc1bc2
uc1bc3
uc1bc4
uc1bc5
uc7
uc8-1b9
ucd
um-uc-3
umbilical
umbilicus-derived
umc-11
umnsah
umr-106
umr-108
undifferentiated
unimodal
uninucleate
unspecified
unswitched
upper
ureter
ureter-derived
ureteral
urethra
uric
urinary
urothelial
urothelium
usask
ut
ut-1
ut-7
uterine
uterus
uterus-derived
uths
uv
uv135
uv20
uv24
uv41
uv5
uva
uve-10
v-79
v-b95
v-c89a
v-c89il2
v-c89ls
v-c91
v-c92
v-d95a
v-d95f
v-m88
v79
v79-4
v91
va
va-13
va-es-bj
va4
va88
va94
vacuolar
vacuole
vagina
vagina-derived
vaginal
valve
variegated
vasa
vascular
vasculature-derived
vasoactive
vasopressin
vb86p
vba88mf
vba88mil2
vba88mls
vd-10
vdelta6
vegetative
vegf
vein
vein-derived
venous
ventral
ventricle
ventricular
venule
vept
vero
vero-b4
vertebral
vertebrata
vertebrate
vervet
vesicle
vessel
vestibular
vestibule-derived
vg84
vg86
vgamma1
vgamma2-negative
vgamma2-positive
vgamma5-negative
vgamma5-positive
vh
vh2
vid
viii
viii-6g10
villous
villus
villus-derived
vin
vip-viiic8
viper
virus
visceral
viscerocranial
visible
visual
vk-b
vk2
vl96
vlm
vln3g2
vln6h2
vm-2
vm-cub1
vm89
vp-8
vp94p
vs86
vsw
vt
vulva-derived
vvm94m
vvp86m
vx2
vx7
w162
w4f
w6
wa
wal
walking
wall
walleye
waps
warmth
wasmc
wbe
wc
wch-17
we
wehi
wehi-13var
wehi-164
wehi-164s
wehi-231
wehi-265
wehi-274
wehi-279
wehi-3
wehi-3b
wen
weri-rb-1
wes
western
wf
wfl3c6
wfl4f12
wgd5
wharton
white
white-cheeked
white-faced
white-handed
white-nosed
white-tufted-ear
wi
wi-26
wi-38
wi-mn-1
widr
wil2
wil2-ns
wil2-s
wilcl
win
window-derived
wish
wkd
wm
wm-115
wm278
wm35
wm39
wm793b
wmp-2
wnt-3a
wnt-5a
wo
wolf
woodchuck
woolly
wop
wpe1-na22
wpe1-nb11
wpe1-nb14
wpe1-nb26
wpmy-1
wr19l
wr19m
wr21
wrc
wrl
ws1
wss-1
wsu-nhl
wt
wu
wx310
x-derived
x1
x16c8
x22
x63ag8
xanthoblast
xanthophore
xb-2
xc
xc-clone
xc1
xcp
xlk-wg
xmmco-791
xmmen-oe5
xmmme-001
xmmme-002
xp10pv
xp11pv
xp12pv
xp13pv
xp14pv
xp15pv
xp16pv
xp17be
xp17pv
xp18pv
xp19pv
xp21pv
xp22pv
xp23pv
xp24pv
xp2le
xp2mo
xp3br2
xp3le
xp3mo
xp3oro
xp4mo
xp5mo
xp5pv
xp6mo
xp7mo
xp8ca
xp8mo
xp9mo
xp9pv
xph10pv
xph11pv
xph12pv
xph13pv
xph14pv
xph15pv
xph16pv
xph17pv
xph18pv
xph19pv
xph1pv
xph20pv
xph2pv
xph3pv
xph4pv
xph5pv
xph6pv
xph7pv
xph8pv
xph9pv
xr-v15b
xrs5
xrs6
xrs6-hamku80
xs63
xth-2
xtk0
xtk1
xtk2
xvi
xxo
xxo-1
y-1
y-17
y-3
y-3p
y3
y3-ag
y79
yac-1
yapc
yb2
yeast
yellow
yi
yn1
yo
yolk
ypen-1
ys001
yt
z-c93a
z-c93f
z-m94
z85
zan
zdf95
zebra
zebrafish
zem2s
zf4
zfl
zone
zr-75-1
zygospore
zygote
